{
  "error": "no such element",
  "message": "no such element: Unable to locate element: {\"method\":\"css selector\",\"selector\":\"h1\"}\n  (Session info: chrome=104.0.5112.102)",
  "stacktrace": "Backtrace:\n\tOrdinal0 [0x00BC6463+2188387]\n\tOrdinal0 [0x00B5E461+1762401]\n\tOrdinal0 [0x00A73D78+802168]\n\tOrdinal0 [0x00AA1880+989312]\n\tOrdinal0 [0x00AA1B1B+989979]\n\tOrdinal0 [0x00ACE912+1173778]\n\tOrdinal0 [0x00ABC824+1099812]\n\tOrdinal0 [0x00ACCC22+1166370]\n\tOrdinal0 [0x00ABC5F6+1099254]\n\tOrdinal0 [0x00A96BE0+945120]\n\tOrdinal0 [0x00A97AD6+948950]\n\tGetHandleVerifier [0x00E671F2+2712546]\n\tGetHandleVerifier [0x00E5886D+2652765]\n\tGetHandleVerifier [0x00C5002A+520730]\n\tGetHandleVerifier [0x00C4EE06+516086]\n\tOrdinal0 [0x00B6468B+1787531]\n\tOrdinal0 [0x00B68E88+1805960]\n\tOrdinal0 [0x00B68F75+1806197]\n\tOrdinal0 [0x00B71DF1+1842673]\n\tBaseThreadInitThunk [0x7685FA29+25]\n\tRtlGetAppContainerNamedObjectPath [0x777E7A9E+286]\n\tRtlGetAppContainerNamedObjectPath [0x777E7A6E+238]\n"
}