[
  {
    "element-6066-11e4-a52e-4f735466cecf": "e9f9ac29-8f6b-415a-8faf-970c18cb74ef"
  },
  {
    "element-6066-11e4-a52e-4f735466cecf": "c4888082-8157-4f25-bd74-5f33070cb543"
  },
  {
    "element-6066-11e4-a52e-4f735466cecf": "25c5f0d7-3121-471a-b0e7-034e18d78454"
  },
  {
    "element-6066-11e4-a52e-4f735466cecf": "1a2713a6-8dd5-46ff-b70d-3906f41392a4"
  },
  {
    "element-6066-11e4-a52e-4f735466cecf": "d167d74b-2339-4cf1-be69-842517bc2d57"
  },
  {
    "element-6066-11e4-a52e-4f735466cecf": "1891c4fe-83f3-45ad-979b-414a0988821b"
  },
  {
    "element-6066-11e4-a52e-4f735466cecf": "93454b61-564c-4433-880a-37ea26eef624"
  },
  {
    "element-6066-11e4-a52e-4f735466cecf": "a02ed8d4-6bf6-43f9-af38-215dd58b8e6e"
  },
  {
    "element-6066-11e4-a52e-4f735466cecf": "1aff1f53-2f3e-4926-bad2-7f87de9564b5"
  },
  {
    "element-6066-11e4-a52e-4f735466cecf": "7c36f4f1-e7f1-40ae-991b-daae26e79de6"
  },
  {
    "element-6066-11e4-a52e-4f735466cecf": "57eac78b-929e-4d06-a1b5-c51b919a9f1a"
  },
  {
    "element-6066-11e4-a52e-4f735466cecf": "e9d5ef74-efed-4960-a215-c5e4fc9f5b37"
  },
  {
    "element-6066-11e4-a52e-4f735466cecf": "f7f2dc2b-499f-4dad-b6af-1351e0bdc1bd"
  },
  {
    "element-6066-11e4-a52e-4f735466cecf": "19f7a900-cea2-4e0a-b429-2bbf23e1f072"
  },
  {
    "element-6066-11e4-a52e-4f735466cecf": "3904728a-4386-401a-bb19-5c61780da9e1"
  },
  {
    "element-6066-11e4-a52e-4f735466cecf": "9b89ec7d-5329-4a5e-9198-9235c4a17a5f"
  },
  {
    "element-6066-11e4-a52e-4f735466cecf": "f232cbb2-598a-4230-96b7-319f637471ba"
  },
  {
    "element-6066-11e4-a52e-4f735466cecf": "e09296d7-9241-452d-a9fd-41c0858f68c1"
  },
  {
    "element-6066-11e4-a52e-4f735466cecf": "f35de5e5-1919-4ec6-9680-f0d9ec791098"
  },
  {
    "element-6066-11e4-a52e-4f735466cecf": "9a9c32aa-a50d-40a4-8ee8-756c42fa49f7"
  },
  {
    "element-6066-11e4-a52e-4f735466cecf": "76209a68-8a6d-468a-b282-a6f9adc5876d"
  },
  {
    "element-6066-11e4-a52e-4f735466cecf": "172581b0-8b06-4114-ada5-b0f55afca4e1"
  },
  {
    "element-6066-11e4-a52e-4f735466cecf": "0127c57f-cd21-462a-99e2-6db495ce0b74"
  },
  {
    "element-6066-11e4-a52e-4f735466cecf": "a9fd62ef-411e-489e-bf1c-090b4e0cd564"
  },
  {
    "element-6066-11e4-a52e-4f735466cecf": "0fa4ec2d-8cff-4785-bc65-2770a392272a"
  },
  {
    "element-6066-11e4-a52e-4f735466cecf": "796e33e5-e9b8-424f-9647-4f63d2b5a661"
  },
  {
    "element-6066-11e4-a52e-4f735466cecf": "fc185724-58a9-42c1-be6f-8d1578273194"
  },
  {
    "element-6066-11e4-a52e-4f735466cecf": "c99f72ca-6892-4fa8-81ce-e9a81fb2dbf9"
  },
  {
    "element-6066-11e4-a52e-4f735466cecf": "66f25e3c-3bde-4ed1-9502-85530a3ea7b1"
  },
  {
    "element-6066-11e4-a52e-4f735466cecf": "766f59e4-b20f-4f9c-aac9-af7ef0112b65"
  },
  {
    "element-6066-11e4-a52e-4f735466cecf": "001eb25a-f9c0-44fd-a1d5-14d8bcedd1e8"
  },
  {
    "element-6066-11e4-a52e-4f735466cecf": "1d5e0d2c-a02c-4a3d-b7ca-4d842a316874"
  },
  {
    "element-6066-11e4-a52e-4f735466cecf": "ecc03699-3379-4228-8d28-47f5ae9c9eda"
  },
  {
    "element-6066-11e4-a52e-4f735466cecf": "ed084161-df57-4892-a4c5-3fc4a4ce6e20"
  },
  {
    "element-6066-11e4-a52e-4f735466cecf": "008413a1-9447-42a3-81da-4de3a71a0b81"
  },
  {
    "element-6066-11e4-a52e-4f735466cecf": "49826f75-d3e6-41f5-9226-5674a7ea0e7d"
  },
  {
    "element-6066-11e4-a52e-4f735466cecf": "5b6f36c5-c48e-467a-8159-24fe1bf779bf"
  },
  {
    "element-6066-11e4-a52e-4f735466cecf": "8a12d713-6602-47af-a902-a6336faf1d51"
  }
]