[
  {
    "element-6066-11e4-a52e-4f735466cecf": "6987b07a-ea9d-4cf8-850d-5c1ccb0e04ef"
  },
  {
    "element-6066-11e4-a52e-4f735466cecf": "b6529e2b-44f1-4211-ac37-82c43cad149e"
  },
  {
    "element-6066-11e4-a52e-4f735466cecf": "aa6b7857-3d81-48b3-863d-deb7c54a985a"
  },
  {
    "element-6066-11e4-a52e-4f735466cecf": "84869bc0-5f2b-42e4-9dac-c0aeb40466e4"
  },
  {
    "element-6066-11e4-a52e-4f735466cecf": "9136fab1-e25e-4b79-917d-fa70e0fb294c"
  },
  {
    "element-6066-11e4-a52e-4f735466cecf": "9a78b510-2d1e-4ab3-b8dc-f8727800ad38"
  },
  {
    "element-6066-11e4-a52e-4f735466cecf": "9ba17501-47e9-43a3-b9d9-eb1240e3b6e7"
  },
  {
    "element-6066-11e4-a52e-4f735466cecf": "02ad93b1-a85b-4383-9058-f0320aac208c"
  },
  {
    "element-6066-11e4-a52e-4f735466cecf": "e607519d-86ec-4d7c-b14a-c24f4de57ffb"
  },
  {
    "element-6066-11e4-a52e-4f735466cecf": "562c5f0b-b1eb-4888-af6f-ccf6b74b38a8"
  },
  {
    "element-6066-11e4-a52e-4f735466cecf": "a9195a8b-e208-4fc5-8389-b092bce67233"
  },
  {
    "element-6066-11e4-a52e-4f735466cecf": "fef49818-5be9-4d37-8d64-26c3e25ab546"
  },
  {
    "element-6066-11e4-a52e-4f735466cecf": "8ae533cd-49c8-4c46-aba4-240b0295082f"
  },
  {
    "element-6066-11e4-a52e-4f735466cecf": "d12ad030-f748-4dc7-841c-5e7755753ece"
  },
  {
    "element-6066-11e4-a52e-4f735466cecf": "fe35b3b2-635f-4ae5-8d8f-49ea9e1c2c97"
  },
  {
    "element-6066-11e4-a52e-4f735466cecf": "4c3c4735-227f-4213-9b96-cec6cb9e2271"
  },
  {
    "element-6066-11e4-a52e-4f735466cecf": "a3ad4b39-4988-4e7a-95bd-793dfb2e4f1a"
  },
  {
    "element-6066-11e4-a52e-4f735466cecf": "e020a5bd-a9e4-4d46-b248-6f15e91bc2ea"
  },
  {
    "element-6066-11e4-a52e-4f735466cecf": "53a3f694-857e-4679-872e-1f0580ead84c"
  },
  {
    "element-6066-11e4-a52e-4f735466cecf": "f6a94949-383a-4f22-8620-b4cf62d3e3da"
  },
  {
    "element-6066-11e4-a52e-4f735466cecf": "b0074ea5-d936-4cd8-97cd-375621626fe2"
  }
]