[
  {
    "element-6066-11e4-a52e-4f735466cecf": "e0b429ac-d035-4ed9-a367-d6d0474c9f8d"
  },
  {
    "element-6066-11e4-a52e-4f735466cecf": "f750ef31-79ec-4b2c-8c52-57a76e504efa"
  },
  {
    "element-6066-11e4-a52e-4f735466cecf": "f64aa3ea-4b96-4421-90f9-a8a496854d2c"
  },
  {
    "element-6066-11e4-a52e-4f735466cecf": "eda56741-42d0-4d1e-963c-2b0e0f428a75"
  },
  {
    "element-6066-11e4-a52e-4f735466cecf": "eb98add9-7e03-4c46-a6ad-6c423b892c89"
  },
  {
    "element-6066-11e4-a52e-4f735466cecf": "7552dd12-4aa0-44d8-a3f6-56371d03bc26"
  },
  {
    "element-6066-11e4-a52e-4f735466cecf": "44de6360-5eaa-4b7e-8258-0d3066a9eea3"
  },
  {
    "element-6066-11e4-a52e-4f735466cecf": "05e559f8-d7a9-4c8f-9285-38db22be2960"
  },
  {
    "element-6066-11e4-a52e-4f735466cecf": "96aff7ec-c435-42e8-80e1-501feb7c2cfe"
  },
  {
    "element-6066-11e4-a52e-4f735466cecf": "3748f586-9de9-4bcf-bf33-0c800ce2a17f"
  },
  {
    "element-6066-11e4-a52e-4f735466cecf": "627fb57b-cc1a-408a-b68f-adfdf34f4a83"
  },
  {
    "element-6066-11e4-a52e-4f735466cecf": "9b08134a-3496-4d55-bf1f-00626e5cfe1d"
  },
  {
    "element-6066-11e4-a52e-4f735466cecf": "c1c33722-eab1-43d3-b326-0112263a49ad"
  },
  {
    "element-6066-11e4-a52e-4f735466cecf": "f6242164-d4af-4ddd-836d-8f19e7387777"
  },
  {
    "element-6066-11e4-a52e-4f735466cecf": "b4eedc94-5df2-47e8-97e7-7a77e602acb4"
  },
  {
    "element-6066-11e4-a52e-4f735466cecf": "0562b12b-807b-4695-81bf-a240a7476f8b"
  },
  {
    "element-6066-11e4-a52e-4f735466cecf": "33fb0106-2489-4a7d-82e9-642284b6bc3a"
  },
  {
    "element-6066-11e4-a52e-4f735466cecf": "78b81a40-feed-47c6-9425-455b52519221"
  },
  {
    "element-6066-11e4-a52e-4f735466cecf": "07789f8d-7f33-446b-9c23-2f942461ceb6"
  },
  {
    "element-6066-11e4-a52e-4f735466cecf": "c6ff7b09-bdd6-4984-8fd7-ebf0359f6e3f"
  },
  {
    "element-6066-11e4-a52e-4f735466cecf": "2bdf10d2-ce81-4e17-b4bc-dc083882e467"
  },
  {
    "element-6066-11e4-a52e-4f735466cecf": "f4b90050-2f14-4a57-bc28-78ae2a63a645"
  },
  {
    "element-6066-11e4-a52e-4f735466cecf": "8c641072-5bcb-4d94-a3fd-b7d2a4d9aff3"
  },
  {
    "element-6066-11e4-a52e-4f735466cecf": "cd62046e-c738-4b92-b3a7-7c90a9385c93"
  },
  {
    "element-6066-11e4-a52e-4f735466cecf": "74f6d142-bdf5-4646-ae46-e29ce0894a60"
  },
  {
    "element-6066-11e4-a52e-4f735466cecf": "21e6255a-e96a-44c7-99fd-e0925b77b333"
  },
  {
    "element-6066-11e4-a52e-4f735466cecf": "33b4e9a5-4a24-4974-939e-371a546cf7e3"
  },
  {
    "element-6066-11e4-a52e-4f735466cecf": "9e4800ba-3007-4fd4-a221-3d5e716c46d3"
  },
  {
    "element-6066-11e4-a52e-4f735466cecf": "ba37aebc-6694-4466-a843-51307e96d775"
  },
  {
    "element-6066-11e4-a52e-4f735466cecf": "6c23fc76-c374-45a4-9876-c436776881b0"
  },
  {
    "element-6066-11e4-a52e-4f735466cecf": "30349aa5-4da4-497c-9f65-0ac849a29e35"
  },
  {
    "element-6066-11e4-a52e-4f735466cecf": "c23321cd-f7f6-40fb-a387-3afdc3b7a805"
  },
  {
    "element-6066-11e4-a52e-4f735466cecf": "d9deaf7d-592f-47af-b0ff-8dee319e0aee"
  }
]